{
  "rc-cms": {
    "blocks": {
      "grid": {
        "label": {
          "3-3-3-3": "4 column 3-3-3-3",
          "4-8": "2 column 4-8",
          "6-6": "2 column 6-6",
          "8-4": "2 column 8-4",
          "9-3": "2 column 9-3",
          "3-9": "2 column 3-9",
          "3-3-6": "3 column 3-3-6",
          "3-6-3": "3 column 3-6-3",
          "4-4-4": "3 column 4-4-4",
          "6-3-3": "3 column 6-3-3"
        }
      },
      "image": {
        "image-image": "image-image"
      },
      "image-text": {
        "4-col-image-with-text": "4 columns image with text",
        "image-text-optional-button": "Image-Text with optional button",
        "3-col-image-text-with-overlay": "3 columns image with text overlay",
        "2-col-image-text": "2 columns image with text"

      }
    },
    "elements": {
      "accordion": "Accordion element",
      "custom-text": "Style-able text with button or link",
      "custom-image": "Style-able image",
      "text-with-link": "Text with link",
      "image-text": "Image and text sibling",
      "image-text-overlay": "Image with text overlay",
      "image-text-link": "Image with text and link(button)",
      "image-flex": "Flex image",
      "double-image": "Two images in 1 element",
      "config": {
        "custom-image": {
          "image": "Choose your image",
          "displayImageAsFigure": "Display the image as a custom figure",
          "imageDisplayFigureOptions": {
            "normal": "Normal",
            "square": "Square",
            "circle": "Circle"
          },
          "imageDisplayType": "Choose how to display your image",
          "imageDisplayTypeOptions": {
            "standard": "Standard",
            "cover": "Cover",
            "stretch": "Stretch"
          },
          "imageHeight": "(Minimum) image height in px",
          "imageHeightPlaceHolder": "ex: 250px, the minimum is 50px",
          "imageMaxWidth": "Choose the max width of the image",
          "imageMaxWidthPlaceHolder": "ex: 350px",
          "imageHorizontalPosition": "Horizontal position of the image",
          "imageVerticalPosition": "Vertical position of the image",
          "imagePositionOptions": {
            "left": "Left",
            "right": "Right",
            "center": "Center",
            "top": "Top",
            "bottom": "Bottom"
          },
          "imageBackgroundColor": "Choose the image background color",
          "useTextOverlay": "Use a text-overlay on the image",
          "useTextLink": "Place text on the image (optional: as link)",
          "tabs": {
            "textContent": "Text content",
            "overlaySettings": "Overlay settings",
            "textSettings": "Text settings",
            "textPosition": "Text Position",
            "overlayUrlSettings": "Overlay URL settings",
            "urlSettings": "URL Settings"
          },
          "linkOrButtonText": "Enter the link or button text",
          "linkOrButtonTextHolder": "ex: Read more",
          "textColor": "Choose the text color",
          "textLink": "Enter Link text",
          "textLinkPlaceHolder": "Some text",
          "fontSize": "Enter a font size with px or rem",
          "fontSizePlaceHolder": "1rem",
          "fontWeight": "Choose the font weight",
          "fontWeightOptions": {
            "thin": "Thin",
            "extraLight": "Extra Light",
            "light": "Light",
            "normal": "Normal",
            "medium": "Medium",
            "semiBold": "Semi Bold",
            "bold": "Bold",
            "extraBold": "Extra Bold"
          },
          "linkTextAlign": "Position text Vertical - Horizontal",
          "linkTextAlignOptions": {
            "bottom": "Bottom",
            "top": "Top",
            "left": "Left",
            "right": "Right",
            "bottomLeft": "Bottom Left",
            "bottomCenter": "Bottom center",
            "bottomRight": "Bottom right",
            "centerLeft": "Center left",
            "centerCenter": "Center center",
            "centerRight": "Center right",
            "topLeft": "Top left",
            "topCenter": "Top center",
            "topRight": "Top right"
          },
          "textMargins": "Text margins in px or rem",
          "textMarginsPlaceHolder": "0px",
          "imagePadding": "Add padding top right left bottom (ex: 10px 0 10px 0)",
          "imagePaddingPlaceHolder": "0 0 0 0",
          "imageCoverKeyOne": {
            "label": "Choose a first alignment for the image",
            "placeHolder": "No selection"
          },
          "imageCoverValueOnePlaceHolder": "Enter a value in px or rem or %",
          "imageCoverValueOne": "Enter a value for the first alignment",
          "imageCoverKeyTwo": {
            "label": "Choose a second alignment for the image",
            "placeHolder": "No selection"
          },
          "imageCoverValueTwo": "Enter a value for the second alignment",
          "imageCoverValueTwoPlaceHolder": "Enter a value in px or rem or %"
        },
        "custom-text": {
          "useButton": "Use a button",
          "useTextLink": "Use text as link",
          "textHeight": "Minimum height",
          "backgroundColor": "Choose the background color",
          "buttonColor": "Choose the color of the button",
          "textColor": "Choose the color of the link- or button-text",
          "linkPosition": {
            "label": "Choose how to display the link or button",
            "position": {
              "left": "Left",
              "center": "Center",
              "right": "Right",
              "top": "Top",
              "bottom": "Bottom"
            }
          },
          "tabs": {
            "buttonOrLinkSettings": "Button- or link- text settings"
          }
        },
        "accordion": {
          "item": {
            "title": "Accordion item button text",
            "placeholder": "Enter the button text",
            "buttonBackgroundColor": "Choose button background color",
            "buttonFontColor": "Choose the text color of the button",
            "panelBackgroundColor": "Choose the background color of the panel",
            "fontSize": "Choose the button text font size",
            "buttonRadius": "Choose the button-radius",
            "fontWeight": "Choose the button text font weight",
            "addItem": "Add an accordion item",
            "removeItem": "Remove this accordion item"
          },
          "tabs": {
            "accordionItemSettings": "Accordion item settings"
          }
        }
      }
    },
    "layout": {
      "helpText": {
        "label": "Enter one or more of the following classes:",
        "no-gap": "no-gap -> no space between blocks",
        "rounded": "rounded -> rounded corners"
      }
    },
    "helpText": {
      "imagePadding": "2 values (ex: 5px 10px) equals (5px 10px 5px 10px)",
      "maxWidth": "Leave empty if you want the figure to scale to the full width of the grid column",
      "imageCoverValue": "<p>Center cannot be used with a value, if selecting only the first keyword the second value is calculated from the top</p></br><p>IF NO PX OR REM OR % IS FOUND PX IS USED</p>",
      "btnRadius": "Enter the radius as 4 values seperated by spaces, ex: 5px 5px 5px 5px"
    }
  }
}
